"DIA","freq"
20130912,1
20130913,1
20130914,1
20130915,1
20130916,1
20130917,1
20130918,1
20130919,1
20130920,1
20130921,1
20130922,1
20130923,1
20130924,1
20130925,1
20130926,1
20130927,1
20130928,1
20130929,1
20130930,1
20131001,1
20131002,1
20131003,1
20131004,1
20131005,1
20131006,1
20131007,1
20131008,1
20131009,1
20131010,1
20131011,1
20131012,1
20131013,1
20131014,1
20131015,1
20131016,1
20131017,1
20131018,1
20131019,1
20131020,1
20131021,1
20131022,1
20131023,1
20131024,1
20131025,1
20131026,1
20131027,1
20131028,1
20131029,1
20131030,1
20131031,1
20131101,1
20131102,1
20131103,1
20131104,1
20131105,1
20131106,1
20131107,1
20131108,1
20131109,1
20131110,1
20131111,1
20131112,1
20131113,1
20131114,1
20131115,1
20131116,1
20131117,1
20131118,1
20131119,1
20131120,1
20131121,1
20131122,1
20131123,1
20131124,1
20131125,1
20131126,1
20131127,1
20131128,1
20131129,1
20131130,1
20131201,1
20131202,1
20131203,1
20131204,1
20131205,1
20131206,1
20131207,1
20131208,1
20131209,1
20131210,1
20131211,1
20131212,1
20131213,1
20131214,1
20131215,1
20131216,1
20131217,1
20131218,1
20131219,1
20131220,1
20131221,1
20131222,1
20131223,1
20131224,1
20131225,1
20131226,1
20131227,1
20131228,1
20131229,1
20131230,1
20131231,1
20140101,1
20140102,1
20140103,1
20140104,1
20140105,1
20140106,1
20140107,1
20140108,1
20140109,1
20140110,1
20140111,1
20140112,1
20140113,1
20140114,1
20140115,1
20140116,1
20140117,1
20140118,1
20140119,1
20140120,1
20140121,1
20140122,1
20140123,1
20140124,1
20140125,1
20140126,1
20140127,1
20140128,1
20140129,1
20140130,1
20140131,1
20140201,1
20140202,1
20140203,1
20140204,1
20140205,1
20140206,1
20140207,1
20140208,1
20140209,1
20140210,1
20140211,1
20140212,1
20140213,1
20140214,1
20140215,1
20140216,1
20140217,1
20140218,1
20140219,1
20140220,1
20140221,1
20140222,1
20140223,1
20140224,1
20140225,1
20140226,1
20140227,1
20140228,1
20140301,1
20140302,1
20140303,1
20140304,1
20140305,1
20140306,1
20140307,1
20140308,1
20140309,1
20140310,1
20140311,1
20140312,1
20140313,1
20140314,1
20140315,1
20140316,1
20140317,1
20140318,1
20140319,1
20140320,1
20140321,1
20140322,1
20140323,1
20140324,1
20140325,1
20140326,1
20140327,1
20140328,1
20140329,1
20140330,1
20140331,1
20140401,1
20140402,1
20140403,1
20140404,1
20140405,1
20140406,1
20140407,1
20140408,1
20140409,1
20140410,1
20140411,1
20140412,1
20140413,1
20140414,1
20140415,1
20140416,1
20140417,1
20140418,1
20140419,1
20140420,1
20140421,1
20140422,1
20140423,1
20140424,1
20140425,1
20140426,1
20140427,1
20140428,1
20140429,1
20140430,1
20140501,1
20140502,1
20140503,1
20140504,1
20140505,1
20140506,1
20140507,1
20140508,1
20140509,1
20140510,1
20140511,1
20140512,1
20140513,1
20140514,1
20140515,2
20140516,2
20140517,2
20140518,2
20140519,2
20140520,2
20140521,2
20140522,2
20140523,2
20140524,2
20140525,2
20140526,2
20140527,2
20140528,2
20140529,2
20140530,2
20140531,2
20140601,2
20140602,2
20140603,2
20140604,3
20140605,4
20140606,4
20140607,4
20140608,6
20140609,7
20140610,19
20140611,22
20140612,22
20140613,22
20140614,22
20140615,22
20140616,22
20140617,22
20140618,22
20140619,22
20140620,23
20140621,23
20140622,23
20140623,23
20140624,23
20140625,23
20140626,23
20140627,24
20140628,25
20140629,26
20140630,28
20140701,31
20140702,36
20140703,43
20140704,44
20140705,47
20140706,47
20140707,48
20140708,53
20140709,55
20140710,62
20140711,67
20140712,75
20140713,75
20140714,75
20140715,79
20140716,79
20140717,79
20140718,79
20140719,82
20140720,82
20140721,83
20140722,83
20140723,84
20140724,85
20140725,85
20140726,85
20140727,85
20140728,85
20140729,85
20140730,85
20140731,87
20140801,88
20140802,91
20140803,92
20140804,96
20140805,105
20140806,112
20140807,118
20140808,120
20140809,125
20140810,126
20140811,126
20140812,128
20140813,135
20140814,139
20140815,146
20140816,146
20140817,147
20140818,148
20140819,155
20140820,161
20140821,170
20140822,176
20140823,181
20140824,182
20140825,184
20140826,190
20140827,200
20140828,205
20140829,205
20140830,209
20140831,212
20140901,215
20140902,226
20140903,229
20140904,250
20140905,253
20140906,260
20140907,263
20140908,268
20140909,275
20140910,287
20140911,304
20140912,331
20140913,351
20140914,352
20140915,355
20140916,367
20140917,377
20140918,386
20140919,399
20140920,405
20140921,408
20140922,415
20140923,470
20140924,494
20140925,502
20140926,1046
20140927,1053
20140928,1054
20140929,1066
20140930,1462
20141001,1496
20141002,1614
20141003,1640
20141004,1647
20141005,1651
20141006,1675
20141007,1823
20141008,2307
20141009,2324
20141010,2356
20141011,2402
20141012,2413
20141013,2452
20141014,2524
20141015,2565
20141016,2623
20141017,2682
20141018,2717
20141019,2735
20141020,2748
20141021,2799
20141022,2869
20141023,2928
20141024,2975
20141025,3034
20141026,3054
20141027,3094
20141028,5353
20141029,5658
20141030,6818
20141031,9303
20141101,10332
20141102,11695
20141103,19522
20141104,29750
20141105,41187
20141106,47602
20141107,57375
20141108,58707
20141109,59522
20141110,65248
20141111,68816
20141112,73315
20141113,77307
20141114,84461
20141115,84593
20141116,84654
20141117,91659
20141118,96017
20141119,100246
20141120,100240
20141121,100242
20141122,100241
20141123,100241
20141124,100237
20141125,100228
20141126,100235
20141127,100235
20141128,100234
20141129,100232
20141130,100189
20141201,100094
20141202,99934
20141203,97710
20141204,91737
20141205,91535
20141206,91608
20141207,91609
20141208,91610
20141209,91588
20141210,91673
20141211,91317
20141212,90375
20141213,90335
20141214,90339
20141215,90328
20141216,90350
20141217,90349
20141218,90360
20141219,90379
20141220,90434
20141221,90433
20141222,90400
20141223,90454
20141224,90509
20141225,90562
20141226,90558
20141227,90587
20141228,90590
20141229,90578
20141230,90588
20141231,90599
20150101,90608
20150102,90798
20150103,90756
20150104,90753
20150105,90744
20150106,90770
20150107,90946
20150108,90937
20150109,90927
20150110,90917
20150111,91113
20150112,96028
20150113,99547
20150114,100802
20150115,100754
20150116,100738
20150117,100643
20150118,100649
20150119,100634
20150120,100567
20150121,100539
20150122,100382
20150123,100342
20150124,100282
20150125,100286
20150126,100256
20150127,100259
20150128,100293
20150129,100287
20150130,100280
20150131,100259
20150201,100218
20150202,100148
20150203,100098
20150204,100051
20150205,100000
20150206,99917
20150207,99839
20150208,99806
20150209,99797
20150210,99776
20150211,99757
20150212,99726
20150213,99697
20150214,99644
20150215,99680
20150216,99822
20150217,99785
20150218,99735
20150219,99711
20150220,99731
20150221,99716
20150222,99710
20150223,99715
20150224,99696
20150225,99672
20150226,99660
20150227,99660
20150228,99656
20150301,99530
20150302,99610
20150303,99648
20150304,99610
20150305,99610
20150306,99584
20150307,99578
20150308,99595
20150309,99616
20150310,99613
20150311,99603
20150312,99701
20150313,99685
20150314,99654
20150315,99657
20150316,99671
20150317,99696
20150318,99944
20150319,99726
20150320,99765
20150321,99709
20150322,99705
20150323,99709
20150324,99711
20150325,99715
20150326,99716
20150327,99832
20150328,99691
20150329,99685
20150330,99711
20150331,99704
20150401,99960
20150402,99756
20150403,99726
20150404,99726
20150405,99727
20150406,99847
20150407,100205
20150408,100099
20150409,99767
20150410,99784
20150411,99875
20150412,99794
20150413,100018
20150414,100042
20150415,100071
20150416,100128
20150417,100209
20150418,100016
20150419,100011
20150420,100352
20150421,100308
20150422,100259
20150423,100413
20150424,100371
20150425,100356
20150426,100357
20150427,100360
20150428,100345
20150429,100347
20150430,100628
20150501,100529
20150502,100544
20150503,100556
20150504,100911
20150505,100957
20150506,100899
20150507,100907
20150508,101075
20150509,100811
20150510,100821
20150511,101072
20150512,101098
20150513,101272
20150514,101978
20150515,102699
20150516,102396
20150517,102558
20150518,103245
20150519,103572
20150520,103401
20150521,103120
20150522,103059
20150523,103028
20150524,103013
20150525,102995
20150526,102890
20150527,102830
20150528,102790
20150529,102884
20150530,102730
20150531,102649
20150601,102748
20150602,102769
20150603,102690
20150604,102562
20150605,102660
20150606,102465
20150607,102478
20150608,102819
20150609,103059
20150610,103188
20150611,102718
20150612,102478
20150613,102582
20150614,102519
20150615,102095
20150616,102000
20150617,102022
20150618,100985
20150619,100522
20150620,100304
20150621,100309
20150622,100393
20150623,100449
20150624,100467
20150625,100542
20150626,100646
20150627,100624
20150628,100661
20150629,100712
20150630,100793
20150701,101071
20150702,101540
20150703,101268
20150704,101012
20150705,100977
20150706,101263
20150707,101406
20150708,101814
20150709,101557
20150710,101212
20150711,100737
20150712,100758
20150713,100881
20150714,101089
20150715,101019
20150716,101007
20150717,100994
20150718,100698
20150719,100652
20150720,100707
20150721,100760
20150722,100307
20150723,100296
20150724,100296
20150725,100306
20150726,100312
20150727,100337
20150728,100514
20150729,100391
20150730,100432
20150731,100412
20150801,100401
20150802,100431
20150803,100741
20150804,100707
20150805,100778
20150806,101090
20150807,100683
20150808,100474
20150809,100462
20150810,100736
20150811,100771
20150812,100757
20150813,100913
20150814,100857
20150815,100525
20150816,100478
20150817,100646
20150818,100743
20150819,100582
20150820,100483
20150821,100343
20150822,100247
20150823,100240
20150824,100254
20150825,100231
20150826,100217
20150827,100206
20150828,100296
20150829,100157
20150830,100140
20150831,100130
20150901,100060
20150902,99854
20150903,99723
20150904,99464
20150905,99209
20150906,99118
20150907,99060
20150908,98897
20150909,98510
20150910,98191
20150911,97868
20150912,97606
20150913,97524
20150914,97182
20150915,96295
20150916,93428
20150917,88492
20150918,85006
20150919,84504
20150920,84408
20150921,83212
20150922,82928
20150923,82643
20150924,82617
20150925,82596
20150926,82590
20150927,82571
20150928,82299
20150929,80883
20150930,78667
20151001,70225
20151002,65437
20151003,64696
20151004,62431
20151005,55731
20151006,44431
20151007,36314
20151008,32424
20151009,27810
20151010,25023
20151011,24577
20151012,23498
20151013,19956
20151014,10516
20151015,4593
20151016,950
20151017,872
20151018,843
20151019,22
