"DIA","freq"
20150621,100309
20150622,100393
20150623,100449
20150624,100467
20150625,100542
20150626,100646
20150627,100624
20150628,100661
20150629,100712
20150630,100793
20150701,101071
20150702,101540
20150703,101268
20150704,101012
20150705,100977
20150706,101263
20150707,101406
20150708,101814
20150709,101557
20150710,101212
20150711,100737
20150712,100758
20150713,100881
20150714,101089
20150715,101019
20150716,101007
20150717,100994
20150718,100698
20150719,100652
20150720,100707
20150721,100760
20150722,100307
20150723,100296
20150724,100296
20150725,100306
20150726,100312
20150727,100337
20150728,100514
20150729,100391
20150730,100432
20150731,100412
20150801,100401
20150802,100431
20150803,100741
20150804,100707
20150805,100778
20150806,101090
20150807,100683
20150808,100474
20150809,100462
20150810,100736
20150811,100771
20150812,100757
20150813,100913
20150814,100857
20150815,100525
20150816,100478
20150817,100646
20150818,100743
20150819,100582
20150820,100483
20150821,100343
20150822,100247
20150823,100240
20150824,100254
20150825,100231
20150826,100217
20150827,100206
20150828,100296
20150829,100157
20150830,100140
20150831,100130
20150901,100060
20150902,99854
20150903,99723
20150904,99464
20150905,99209
20150906,99118
20150907,99060
20150908,98897
20150909,98510
20150910,98191
20150911,97868
20150912,97606
20150913,97524
20150914,97182
20150915,96295
20150916,93428
20150917,88492
20150918,85006
20150919,84504
20150920,84408
20150921,83212
20150922,82928
