"DE_MUNICIP","freq"
"A CORUÑA",19632
"AÑOVER DE TAJO",64
"ABIA DE LAS TORRES",94
"ABRERA",1652
"ACEBEDO",94
"ACEUCHAL",282
"ADEJE",14488
"ADEMUZ",61627
"AGÜIMES",216
"AGRAMUNT",1814
"AGUADULCE",525
"AGUILON",282
"AGUIMES",21489
"AITONA",664
"AJO",1880
"ALAMEDA DE LA SAGRA",284
"ALARO",97
"ALBACETE",88676
"ALBENDIEGO",94
"ALBOCASSER",188
"ALBOLOTE",188
"ALBURQUERQUE",679
"ALCAÑIZ",557
"ALCALA DE HENARES",21493
"ALCALA DE XIVERT",10683
"ALCALA LA REAL",94
"ALCANAR",852
"ALCAUDETE",92
"ALCAZAR DE SAN JUAN",294
"ALCOBENDAS",264
"ALCORCON",151
"ALCUBIERRE",282
"ALCUDIA",1410
"ALDEASECA DE ALBA",85
"ALDEATEJADA",94
"ALFORJA",94
"ALFOZ DE BRICIA",94
"ALFOZ DE SANTA GADEA",470
"ALGARROBO",94
"ALGECIRAS",10629
"ALHAURIN DE LA TORRE",96
"ALICANTE/ALACANT",364
"ALJARAQUE",188
"ALLARIZ",245
"ALLER",1704
"ALMANSA",168
"ALMAZORA",89
"ALMENARA",16506
"ALMENDRALEJO",2132
"ALMERIA",6474
"ALMONACID DE LA SIERRA",31452
"ALQUERIAS DEL NIÑO PERDIDO",658
"AMER",94
"ANDORRA",94
"ANDRATX",41212
"ANOETA",940
"ANTEQUERA",23492
"ANTIGUA",1516
"ARAHAL",188
"ARANJUEZ",996
"ARENILLAS DE RIOPISUERGA",94
"ARENYS DE MAR",130848
"ARENYS DE MUNT",45597
"ARGAMASILLA DE ALBA",66
"ARGANDA",82
"ARGANDA DEL REY",393
"ARGENTONA",86609
"ARICO",10399
"ARIJA",346
"ARMILLA",97
"ARNUERO",6909
"ARONA",14710
"ARRECIFE",12410
"ARREDONDO",1034
"ARRONIZ",94
"ARTA",1317
"ARTEIXO",982
"ARUCAS",16027
"ASTORGA",81
"AVILA",33525
"AYORA",94
"BADAJOZ",35407
"BADALONA",6229
"BADIA DEL VALLES",17078
"BAEZA",192
"BAIDES",282
"BAILEN",201870
"BANYALBUFAR",1222
"BARAKALDO",4512
"BARBADAS",180
"BARCELONA",61898
"BAREYO",3290
"BARRAX",87
"BARRIO DE BRICIA",470
"BASCONES DE OJEDA",188
"BEARIZ",31
"BEAS",553
"BEAS DE SEGURA",95644
"BELORADO",94
"BENALMADENA",38893
"BENALUA",494
"BENASAU",94
"BENIARRES",94
"BENICARLO",1124
"BENICASIM",89
"BENIDORM",37305
"BENILLOBA",321
"BENQUERENCIA DE LA SERENA",376
"BERCIANOS DEL REAL CAMINO",82
"BERGA",94
"BERGONDO",29
"BERIAIN",94
"BETXI",544
"BILBAO",122739
"BOAL",94
"BORMUJOS",2266
"BOROX",378
"BORRIANA/BURRIANA",188
"BREÑA ALTA",64580
"BREÑA BAJA",19496
"BROTO",188
"BUBION",566
"BUENAVISTA DE VALDAVIA",94
"BUENAVISTA DEL NORTE",94
"BURGOS",96030
"BURON",282
"BURRIANA",6392
"BUSTARES",94
"BUSTILLO DE LA VEGA",376
"CAÑAMERO",92
"CAÑIZAL",188
"CABANAQUINTA/CABAÑAQUINTA",188
"CABANES",2162
"CABEZAS DE SAN JUAN (LAS)",686
"CABEZON DE LA SAL",17452
"CABEZON DE LIEBANA",1316
"CABRERA D?ANOIA",279
"CABRERA D´ANOIA",93
"CACERES",39057
"CALAÑAS",94
"CALACEITE",1222
"CALAFELL",94
"CALAHORRA DE BOEDO",470
"CALAMONTE",190
"CALANDA",1093
"CALATAYUD",1037
"CALDES D'ESTRAC",94
"CALLDETENES",1034
"CALVIA",2168
"CALZADA DE LOS MOLINOS",376
"CALZADA DE VALDUNCIEL",94
"CAMARGO",16211
"CAMARMA DE ESTERUELAS",16699
"CAMBRE",370
"CAMBRILS",1017
"CAMPO DE CRIPTANA",307
"CAMPO REAL",102
"CAMPOO DE ENMEDIO",3666
"CANDELARIA",188
"CAPDEPERA",5362
"CAPILEIRA",282
"CARBALLO",1299
"CARBONERAS",174
"CARMONA",97
"CARRANQUE",31
"CARRION DE LOS CONDES",2444
"CARTAGENA",21684
"CARTAMA",457
"CARTAYA",713
"CARTES",7786
"CASAS ALTAS",473
"CASAS BAJAS",282
"CASTAÑEDA",3384
"CASTELLANOS DE MORISCOS",6412
"CASTELLANOS DE VILLIQUERA",94
"CASTELLDEFELS",3691
"CASTELLOLI",476
"CASTELLON",13253
"CASTELLON DE LA PLANA",72988
"CASTELLON LA PLANA/CASTELLO PL",658
"CASTILBLANCO DE LOS ARROYOS",221
"CASTRILLO DE RIOPISUERGA",94
"CASTRILLO DE VILLAVEGA",188
"CASTROJERIZ",376
"CAZORLA",155289
"CEA",438
"CENDEJAS DE ENMEDIO",94
"CENDEJAS DE LA TORRE",188
"CENIZATE",87
"CERVELLO",465
"CESPEDOSA DE TORMES",752
"CHICLANA DE LA FRONTERA",25610
"CHILCHES",8861
"CHILCHES/XILXES",188
"CHINCHILLA DE MONTE-ARAGON",4700
"CHINCHON",186
"CHOZAS DE ABAJO",119
"CIEZA",1222
"CIHUELA",94
"CILLORIGO DE LIEBANA",2226
"CIUDAD REAL",1525
"CIUDAD RODRIGO",94
"CIUTADELLA DE MENORCA",7062
"COLLAZOS DE BOEDO",282
"COLMENAR DE OREJA",31
"CONDEMIOS DE ABAJO",188
"CONIL DE LA FRONTERA",1070
"CONSELL",94
"CORBERA DE LLOBREGAT",1316
"CORDOBA",56343
"CORIA DEL RIO",97
"CORVERA DE TORANZO",5264
"COSLADA",2599
"CRETAS",1260
"CUADROS",94
"CUARTE DE HUERVA",1704
"CUBILLAS DE RUEDA",470
"CUERVO (EL)",48230
"CULLEREDO",1111
"DAGANZO DE ARRIBA",188
"DAIMIEL",1892
"DALIAS",376
"DENIA",7900
"DESTRIANA",124
"DONOSTIA-SAN SEBASTIAN",2807
"DOS HERMANAS",4860
"ECIJA",94
"EIVISSA",20567
"EJEA",282
"EL CUBILLO DE UCEDA",188
"EL CUERVO DE SEVILLA",206
"EL ESPINAR",608
"EL GOLFO",94
"EL PINAR",470
"EL PINAR DE EL HIERRO",40739
"EL PRAT DE LLOBREGAT",94
"EL PUERTO DE SANTA MARIA",362
"EL ROSARIO",491
"EL TANQUE",382
"EL VENDRELL",5850
"EL VERGER",799
"ELCHE",687
"ELCHE/ELX",273
"ELEXALDE",940
"ELS HOSTALETS DE PIEROLA",282
"ELS POBLETS",3084
"ENCINILLAS",62
"ENTRAMBASAGUAS",7321
"ES MERCADAL",576
"ESCALANTE",376
"ESPARTINAS",729
"ESPINO DE LA ORBADA",470
"ESPINOSA DE VILLAGONZALO",658
"ESPLUGUES DE LLOBREGAT",1023
"ESPORLES",1504
"ESQUIVIAS",62
"ESTEPA",282
"ESTEPONA",25500
"ESTREMERA",94
"FELANITX",144
"FIGUERES",786
"FISTERRA",1118
"FOGARS DE LA SELVA",94
"FONELAS",170
"FORMENTERA",20341
"FOZ",83
"FRONTERA",56652
"FUENGIROLA",11496
"FUENTE-OBEJUNA",1622
"FUENTE EL FRESNO",219
"FUENTE TOJAR",188
"FUENTE VAQUEROS",97
"FUENTES DE BEJAR",94
"FUSTIÑANA",94
"GALAPAGOS",2162
"GALDAR",564
"GALVE DE SORBE",94
"GANDIA",87761
"GARCIA",473
"GARLITOS",752
"GARROBO (EL)",94
"GARRUCHA",846
"GIBRALEON",1315
"GINESTAR",191
"GIRONA",1783
"GOMECELLO",1241
"GRADEFES",1504
"GRANADA",83005
"GRANADILLA DE ABONA",47941
"GRIJALBA",94
"GUADALAJARA",2734
"GUADALUPE",1222
"GUADIX",1220
"GUARDAMAR DEL SEGURA",94
"GUIA DE ISORA",72
"GUIJUELO",470
"GUILLENA",94
"GUISSONA",3813
"HARO",87
"HERMIGUA",27143
"HERNIALDE",188
"HERRERA",88
"HERRERA DE PISUERGA",4812
"HERRERIAS",2350
"HIENDELAENCINA",188
"HITA",188
"HORCAJO MEDIANERO",188
"HORNILLOS DEL CAMINO",188
"HOSPITAL DE ORBIGO",262
"HUELVA",216804
"HUERMECES DEL CERRO",94
"HUESCA",11768
"HUETOR TAJAR",1113
"IBARRA",2140
"ICOD DE LOS VINOS",2750
"IGUALADA",2945
"ILLESCAS",1200
"ILLORA",282
"INCA",1410
"ITERO DEL CASTILLO",94
"IZNAJAR",685
"IZNATE",94
"IZNATORAF",476
"JADRAQUE",188
"JAEN",25417
"JAVEA",9874
"JAVEA/XABIA",2499
"JEREZ DE LA FRONTERA",7513
"JIRUEQUE",188
"JORBA",94
"L'ALFAS DEL PI",94
"L'HOSPITALET DE LLOBREGAT",381704
"L?ESCALA",1789
"LA ALMUNIA",469
"LA BAÑEZA",362
"LA CABEZA DE BEJAR",94
"LA CODOSERA",362
"LA CONCHA",94
"LA GINETA",3713
"LA GRANJA D'ESCARP",188
"LA GUANCHA",570
"LA HUERCE",355
"LA IGLESIA",376
"LA LASTRILLA",494
"LA LLOSA",1880
"LA MUELA",72
"LA PALMA DEL CONDADO",94
"LA POLA",94
"LA POLA DE GORDON",2726
"LA SERNA",94
"LA TAHA",377
"LA TALA",94
"LA TOBA",188
"LA TORRE D'EN DOMENEC",94
"LA UNION",18228
"LA VALL D'UIXO",183
"LA VECILLA",94
"LA VELLES",470
"L´ESCALA",1897
"LAGUNA DE NEGRILLOS",112
"LAMASON",282
"LANTADILLA",846
"LAREDO",24333
"LAS PALMAS DE G.C.",30262
"LAS PALMAS DE GRAN CANARIA",188
"LAS ROZAS DE MADRID",94
"LASARTE-ORIA",188
"LEBRIJA",285
"LEGANES",278
"LEIOA",2941
"LEITZA",94
"LENA",1653
"LEON",406
"LEPE",1127
"LES MASIES DE VOLTREGA",188
"LES PLANES D'HOSTOLES",188
"LIERGANES",5452
"LINARES",849
"LLANSA",472
"LLEIDA",4045
"LLORET DE MAR",661
"LLUCMAJOR",1319
"LOECHES",181
"LOGROÑO",470
"LOJA",11343
"LOMA DE UCIEZA",94
"LORCA",31012
"LOS CORRALES",376
"LOS CORRALES DE BUELNA",2632
"LOS REALEJOS",1510
"LOS SANTOS",846
"LOS SILOS",94
"LUCENA",2238
"LUENA",1920
"LUESIA",356
"LUESMA",94
"LUGO",2887
"MAÓ",10274
"MADRID",693808
"MAELLA",188
"MAHORA",169
"MAIRENA DEL ALCOR",261765
"MAIRENA DEL ALJARAFE",19476
"MALAGA",86262
"MALGRAT DE MAR",93
"MANACOR",12024
"MANCHA REAL",191
"MANLLEU",1706
"MANRESA",473
"MANSILLA MAYOR",846
"MARAÑA",94
"MARBELLA",10593
"MARCILLA DE CAMPOS",188
"MARIA DE HUERVA",149
"MARINA DE CUDEYO",9013
"MARRATXI",97
"MARTOS",18655
"MARUGAN",216
"MASIDE",116
"MATAMOROSA",996
"MATARO",1785
"MAZALEON",94
"MEDIO CUDEYO",19065
"MEDRANDA",376
"MEJORADA DEL CAMPO",997
"MELGAR DE FERNAMENTAL",2068
"MENGIBAR",181
"MERUELO",4136
"MIÑO",1
"MIENGO",11994
"MIERA",282
"MIERES",2963
"MIERES DEL CAMIN",901
"MIGUEL ESTEBAN",3190
"MIGUELTURRA",1228
"MIRALRIO",94
"MIRAVET",188
"MOCLIN",188
"MOGAN",3755
"MOGUER",188
"MOLINS DE REI",752
"MOLLERUSSA",447
"MOLLET DEL VALLES",16
"MONACHIL",263
"MONCOFA",470
"MONDA",666
"MONFERO",31
"MONT-ROIG DEL CAMP",3991
"MONTEJO",188
"MONTELLANO",16710
"MONTERRUBIO DE ARMUÑA",1899
"MONTGAT",460
"MONTIJO",57030
"MONTMANEU",282
"MORA D'EBRE",551
"MORISCOS",1196
"MORON DE LA FRONTERA",94
"MORON FRONTERA",4078
"MOSTOLES",184
"MOTRIL",7198
"MURCHANTE",94
"MURCIA",1551
"MURIEDAS",2256
"MURO",278
"MURO DE ALCOY",214
"MURO DEL ALCOY",553
"NAVALVILLAR DE IBOR",188
"NAVIA",188
"NIJAR",591
"NOGAL DE LAS HUERTAS",376
"NUMANCIA DE LA SAGRA",62
"O CARBALLIÑO",402
"ODENA",1609
"OLEIROS",654
"OLIVA",282
"ONDA",2576
"ONDARROA",88
"ORERA",282
"OSORNILLO",94
"OSORNO",658
"OSORNO LA MAYOR",752
"OURENSE",5148
"PACS DEL PENEDES",94
"PAJARA",4368
"PALAFOLLS",645
"PALAFRUGELL",208
"PALENCIA",94
"PALENCIA DE NEGRILLA",282
"PALMA",122200
"PALMA DE MALLORCA",94
"PALMA DEL CONDADO (LA)",18488
"PALMACES DE JADRAQUE",188
"PAMPLONA",30444
"PAMPLONA/IRUÑA",2513
"PARACUELLOS DE JARAMA",90
"PARAMO DE BOEDO",470
"PEÑARROYA-PUEBLONUEVO",118197
"PEÑARRUBIA",564
"PEÑISCOLA",14138
"PECHINA",94
"PEDRERA",222
"PEDRO MUÑOZ",33
"PEDROSA DE LA VEGA",1034
"PEDROSA DEL PARAMO",188
"PENAGOS",2179
"PESAGUERO",1880
"PESQUERA",558
"PIELAGOS",15794
"PIERA",772
"PILES",92
"PILOÑA",120
"PINA DE EBRO",92
"PIZARRAL",188
"PLASENCIA",410
"POBLADURA DEL VALLE",64
"POIO",100
"POLACIONES",376
"POLANCO",9432
"POLLENÇA",18326
"POMALUENGO",376
"PONTEVEDRA",2639
"PORTUGALETE",48475
"PORTUGOS",188
"POSADA DE VALDEON",188
"POZO CAÑADA",3063
"POZUELO DE ALARCON",10960
"PRIEGO DE CORDOBA",89
"PUEBLA DE GUZMAN",2021
"PUENTE DEL CONGOSTO",94
"PUENTE VIESGO",6435
"PUENTENANSA",282
"PUERTO DE LA CRUZ",11778
"PUERTO DE SANTA MARIA (EL)",27953
"PUERTO DEL ROSARIO",46152
"PUNTA UMBRIA",7669
"PURULLENA",484
"QUART DE POBLET",4982
"RAMALES DE LA VICTORIA",282
"REINOSA",7221
"RENEDO",6486
"RENEDO DE LA VEGA",376
"REOCIN",94
"REUS",31813
"REVILLA DE COLLAZOS",282
"REZMONDO",188
"RIAÑO",440
"RINCONADA (LA)",3630
"RIONANSA",2253
"RIOTORTO",94
"RIVAS-VACIAMADRID",1523
"RIVERO",470
"ROBLEDO DE CORPES",188
"RODA DE ANDALUCIA (LA)",275
"ROIZ",1303
"RONCAL",282
"RONDA",94
"RONQUILLO (EL)",97
"ROPERUELOS DEL PARAMO",90
"ROQUETAS DE MAR",3145
"ROSES",2617
"ROSSELL",470
"ROTA",22622
"RUBAYO",2256
"RUBI",328938
"RUENTE",94
"RUESGA",916
"RUILOBA",3099
"RUTE",37948
"S.SEBASTIAN DE LA GOMERA",768
"S/C DE LA PALMA",3229
"S/C DE TENERIFE",66830
"SA POBLA",382
"SABADELL",5252
"SABIÑANIGO",282
"SADA",1075
"SADABA",376
"SALAMANCA",144133
"SALOBREÑA",328
"SALOU",188
"SALT",2345
"SAN AMARO",31
"SAN BARTOLOME",36606
"SAN BARTOLOME DE TIRAJANA",12912
"SAN CRISTOBAL DE BOEDO",94
"SAN CRISTOBAL DE LA CUESTA",3849
"SAN CRISTOBAL DE LA LAGUNA",4971
"SAN CRISTOBAL DE SEGOVIA",124
"SAN CRISTOVO DE CEA",78
"SAN FELICES DE BUELNA",4788
"SAN FERNANDO",97377
"SAN FERNANDO DE HENARES",2421
"SAN ILDEFONSO",1599
"SAN ILDEFONSO O LA GRANJA",192
"SAN JAVIER",13757
"SAN JOSE",188
"SAN JUAN DE AZNALFARACHE",94
"SAN LEONARDO DE YAGÜE",94
"SAN MAMES DE CAMPOS",94
"SAN MIGUEL DE ABONA",15096
"SAN MIGUEL DE LUENA",188
"SAN MIGUEL DE MERUELO",846
"SAN PEDRO DE BREÑA ALTA",197
"SAN VICENTE DE ALCANTARA",5499
"SAN VICENTE DE LA BARQUERA",8808
"SAN VICENTE DE TORANZO",2154
"SANLUCAR DE BARRAMEDA",545
"SANLUCAR LA MAYOR",188
"SANT ANDREU DE LA BARCA",6318
"SANT ANTONI DE PORTMANY",1073
"SANT BOI DE LLOBREGAT",388948
"SANT CARLES DE LA RAPITA",245904
"SANT CUGAT DEL VALLES",667
"SANT FELIU DE GUIXOLS",89
"SANT FELIU DE LLOBREGAT",459
"SANT FELIU DE PALLEROLS",94
"SANT JOAN DE LABRITJA",9447
"SANT JOSEP DE SA TALAIA",2476
"SANT JULIA DE VILATORTA",248
"SANT LLUIS",16154
"SANT MARTI DE TOUS",181
"SANT MARTI SARROCA",275
"SANT MATEU",94
"SANT PERE DE RIBES",244201
"SANTA COLOMA DE FARNERS",366
"SANTA COLOMA DE GRAMENET",362149
"SANTA CRUZ DE BEZANA",13742
"SANTA CRUZ DE BOEDO",188
"SANTA CRUZ DE TENERIFE",188
"SANTA EUFEMIA",70
"SANTA EUGENIA DE BERGA",188
"SANTA EULARIA DES RIU",3255
"SANTA GADEA DEL CID",94
"SANTA LUCIA DE TIRAJANA",4301
"SANTA MARGALIDA",1527
"SANTA MARGARIDA DE MONTBUI",2916
"SANTA MARIA DE CAYON",794
"SANTA MARIA DE GUIA",16194
"SANTA MARIA DEL CAMI",97
"SANTA MARIA DEL PARAMO",31
"SANTA MARINA DEL REY",128
"SANTA MARTA DE TORMES",448
"SANTA SUSANNA",188
"SANTANDER",188156
"SANTANYI",8583
"SANTAS MARTAS",1252
"SANTIAGO DE COMPOSTELA",43
"SANTILLANA",752
"SANTILLANA DEL MAR",5429
"SANTOÑA",28825
"SANTURTZI",2700
"SARIÑENA",16164
"SARRION",97
"SASAMON",564
"SEGOVIA",1288
"SELVA",752
"SES SALINES",13669
"SESEÑA",475
"SESTAO",2873
"SETLA",299
"SEVILLA",60484
"SIGÜENZA",94
"SIGUENZA",462
"SITGES",1867
"SOBA",1316
"SOCUELLAMOS",857
"SOLORZANO",658
"SON SERVERA",354
"SOTO DE LA VEGA",30
"SOTOBAÑADO Y PRIORATO",188
"SOTRESGUDO",1692
"SUANCES",17522
"TACORONTE",558
"TAFALLA",94
"TALAVAN",90
"TAMA",1222
"TARADELL",191
"TARAZONA DE LA MANCHA",8554
"TARDAGUILA",188
"TARIFA",705
"TARODA",188
"TARRAGONA",13729
"TARREGA",831
"TARRIO",233
"TAUSTE",20529
"TEGUESTE",94
"TEGUISE",318
"TELDE",20129
"TEROR",191
"TERRASSA",5967
"TERUEL",1084
"TIAS",184
"TINAJO",97
"TINEO",282
"TIVISSA",429
"TOCINA",97
"TOLOSA",2170
"TOMARES",1068
"TOMELLOSO",772
"TOPAS",172
"TORDERA",2646
"TORRALBA DE CALATRAVA",741
"TORRE BAJA",667
"TORRE DEL CAMPO",693
"TORRE ENDOMENECH",94
"TORREBLANCA",189
"TORREDELCAMPO",104922
"TORREDEMBARRA",115
"TORREDONJIMENO",6338
"TORREJON DE ARDOZ",1612
"TORREJON DEL REY",6319
"TORRELAVEGA",34258
"TORREMEJIA",94
"TORRENT",94
"TORRES DE LA ALAMEDA",62
"TORREVIEJA",2022
"TORROX",487541
"TRESVISO",94
"TUDELA",87
"UBEDA",829
"UBRIQUE",174178
"UCEDA",4794
"UGENA",59
"UMBRETE",121
"URDIALES DEL PARAMO",31
"UTEBO",194
"UZTARROZ",379
"VALDALIGA",9581
"VALDE-UCIEZA",188
"VALDEAVERO",1974
"VALDECILLA",2094
"VALDELCUBO",94
"VALDEOLMOS",94
"VALDEOLMOS-ALALPARDO",1222
"VALDEPIELAGO",94
"VALDEPRADO DEL RIO",94
"VALDERREDIBLE",94
"VALDES",1433
"VALDEVIMBRE",32
"VALENCIA",21420
"VALLADOLID",2703
"VALLDEMOSSA",379
"VALLE DE ABDALAJIS",830
"VALLE DE VALDEBEZANA",564
"VALSECA",75
"VALVERDE",82435
"VALVERDE DEL CAMINO",848
"VEGAS DE MATUTE",60
"VEGUILLA",94
"VELEZ-MALAGA",7505
"VELEZ BENAUDALLA",94
"VELILLA DE SAN ANTONIO",110
"VERA",2911
"VERGER (EL)",752
"VIC",20693
"VICAR",1131
"VIGO",9167
"VILA-REAL",9550
"VILABLAREIX",188
"VILAFRANCA DE BONANY",94
"VILANOVA D'ALCOLEA",282
"VILCHES",72
"VILLABUENA DEL PUENTE",94
"VILLACARRILLO",4314
"VILLADIEGO",1692
"VILLAESCUSA",282
"VILLAFRANCA DE LOS BARROS",94
"VILLAHERREROS",376
"VILLAJOYOSA/LA VILA JOIOSA",94
"VILLALBILLA",318
"VILLALUENGA DE LA VEGA",94
"VILLAMERIEL",940
"VILLANUÑO DE VALDAVIA",94
"VILLANUEVA DE GALLEGO",664
"VILLANUEVA DE HUERVA",8338
"VILLANUEVA DE LA CONCEPCION",640
"VILLANUEVA DE LAS MANZANAS",282
"VILLANUEVA DEL RIO Y MINAS",282
"VILLAOBISPO DE OTERO",31
"VILLAPROVEDO",282
"VILLAR DEL OLMO",40
"VILLAREJO DE ORBIGO",133
"VILLARES DE LA REINA",16940
"VILLARRABE",94
"VILLARREAL/VILA-REAL",41405
"VILLARRUBIA DE LOS OJOS",891
"VILLARTA DE SAN JUAN",93
"VILLASANDINO",94
"VILLASARRACINO",453
"VILLASILA DE VALDAVIA",282
"VILLAVERDE DE GUADALIMAR",282
"VILLAYUSO",188
"VILLAZANZO DE VALDERADUEY",94
"VILOBI D'ONYAR",1019
"VINAROS",79334
"VITORIA-GASTEIZ",630
"VIVEIRO",94
"XIRIVELLA",94
"XUNQUEIRA DE AMBIA",82
"YAIZA",72
"YELES",310
"YUNCOS",45
"YUNQUERA",94
"ZAFRA",887
"ZARAGOZA",167833
"ZARZOSA DE RIO PISUERGA",188
"ZUERA",180
